Predictive modeling with text using tidy data principles
…
# Setting up a tuning grid

```r
param_grid <- grid_regular(
  penalty(range = c(-4, 0)),
  max_tokens(range = c(500, 2000)),
  levels = 6
)

param_grid
```

```
## # A tibble: 36 x 2
##     penalty max_tokens
##       <dbl>      <int>
##  1 0.0001          500
##  2 0.000631        500
##  3 0.00398         500
##  4 0.0251          500
##  5 0.158           500
##  6 1               500
##  7 0.0001          800
##  8 0.000631        800
##  9 0.00398         800
## 10 0.0251          800
## # … with 26 more rows
```
…
